{
  "urls": [
            {
      "url": "https://codeberg.org/1169324783/ysc/raw/branch/main/lu.json",
      "name": "自用"
    },
    {
      "url": "http://vip.qqqwww.xyz/ku.txt",
      "name": "番茄VIP"
    },
    {
      "url": "https://codeberg.org/ztha/tvbox/raw/branch/main/djk1.json",
      "name": "挺好分享"
    },
    {
      "url": "http://饭太硬.top/tv",
      "name": "饭太硬"
    },
        {
      "url": "clan://localhost/tvbox/%E5%A3%B9%E6%A2%A6/%E5%A3%B9%E6%A2%A6.json",
      "name": "壹梦"
    },
            {
      "url": "https://us1.wuaipan.com/api/v3/slave/source/1048576/dXBsb2Fkcy8yMDIzLzEwLzI5L0xsVWd6QXdGX2Vtby5qc29uLnR4dA/emo.json?sign=1k5qKptKvtZ_pH0RFrhQ-uBhey2kfQgR8oNUg11R8EY%3D%3A0",
      "name": "EMO"
    },
    {
      "url": "http://tv.nxog.top/m/111.php?ou=公众号欧歌app&mz=all&jar=all&b=欧歌",
      "name": "纯4K"
    },
    {
      "url": "https://jihulab.com/ymz1231/xymz/-/raw/main/ymshaoer",
      "name": "儿童"
    },
    {
      "url": "https://codeberg.org/dlbo/ysc/raw/branch/1/1.json",
      "name": "关注抖音【半壶老酒】防丢失噢"
    }
  ]
}